MagDown PARAMs START ====>
am, 6.2, -10, 10, 1
bm, -14.2, -20, 0, 1
cm, 8.8, -10, 200, 0
coeffsig, 0.45, 0, 1, 0
dm0, 139, 130, 150, 0
mean, 145, 138, 159, 0
sigma1, 0.45, 0, 10, 0
sigma2, 1.1, 0, 10, 0
sigma3, 0.9, 0, 10, 0
MagDown PARAMs END <====
MagUp PARAMs START ====>
am, 6.2, -10, 10, 1
bm, -14.2, -20, 0, 1
cm, 8.8, -10, 200, 0
coeffsig, 0.45, 0, 1, 0
dm0, 139, 130, 150, 0
mean, 145, 138, 159, 0
sigma1, 0.45, 0, 10, 0
sigma2, 1.1, 0, 10, 0
sigma3, 0.9, 0, 10, 0
MagUp PARAMs END <====
