2018Up0-4	0	0	 chi2PRS: 0.958792	 chi2MRS: 0.86997
2018Down0-4	0	0	 chi2PRS: 0.672699	 chi2MRS: 0.801536
2018Up0-0	0	0	 chi2PRS: 2.52085	 chi2MRS: 2.34095
2018Down0-5	0	0	 chi2PRS: 0.565289	 chi2MRS: 0.650497
2018Up0-5	0	0	 chi2PRS: 0.80171	 chi2MRS: 0.630006
2018Down0-6	0	0	 chi2PRS: 0.598046	 chi2MRS: 1.09119
2018Up0-6	0	0	 chi2PRS: 0.820891	 chi2MRS: 0.850566
2018Up0-3	0	0	 chi2PRS: 1.68611	 chi2MRS: 2.03408
2018Down0-3	0	0	 chi2PRS: 1.82401	 chi2MRS: 1.5959
2018Up0-1	0	0	 chi2PRS: 4.78558	 chi2MRS: 4.81031
2018Down0-0	0	0	 chi2PRS: 1.95307	 chi2MRS: 2.25139
2018Down0-1	0	0	 chi2PRS: 5.06664	 chi2MRS: 5.08757
2018Down0-2	0	0	 chi2PRS: 4.68141	 chi2MRS: 4.96409
2018Up0-2	0	0	 chi2PRS: 4.01374	 chi2MRS: 4.4537
2018Up1-4	0	0	 chi2PRS: 1.61017	 chi2MRS: 1.17582
2018Down1-4	0	0	 chi2PRS: 1.15846	 chi2MRS: 1.82377
2018Down1-3	0	0	 chi2PRS: 1.93069	 chi2MRS: 1.8475
2018Up1-0	0	0	 chi2PRS: 2.27804	 chi2MRS: 1.75062
2018Down1-5	0	0	 chi2PRS: 0.805243	 chi2MRS: 1.08374
2018Up1-1	0	0	 chi2PRS: 3.92755	 chi2MRS: 4.17332
2018Down1-0	0	0	 chi2PRS: 1.94032	 chi2MRS: 1.85246
2018Up1-3	0	0	 chi2PRS: 1.90514	 chi2MRS: 1.87908
2018Down1-1	0	0	 chi2PRS: 4.12237	 chi2MRS: 3.48109
2018Up1-5	0	0	 chi2PRS: 1.23038	 chi2MRS: 1.05961
2018Up1-6	0	0	 chi2PRS: 1.84784	 chi2MRS: 1.7031
2018Down1-6	0	0	 chi2PRS: 1.2601	 chi2MRS: 1.35016
2018Up1-2	0	0	 chi2PRS: 2.52078	 chi2MRS: 2.74441
2018Down1-2	0	0	 chi2PRS: 2.08795	 chi2MRS: 2.27131
2018Up2-5	0	0	 chi2PRS: 1.08959	 chi2MRS: 1.27556
2018Down2-5	0	0	 chi2PRS: 1.03015	 chi2MRS: 1.1119
2018Down2-4	0	0	 chi2PRS: 1.23021	 chi2MRS: 1.33795
2018Up2-4	0	0	 chi2PRS: 1.19457	 chi2MRS: 1.03031
2018Down2-6	0	0	 chi2PRS: 1.29468	 chi2MRS: 1.39694
2018Up2-6	0	0	 chi2PRS: 1.45285	 chi2MRS: 1.32233
2018Up3-5	0	0	 chi2PRS: 0.859974	 chi2MRS: 0.728167
2018Down3-6	0	0	 chi2PRS: 1.00379	 chi2MRS: 1.0042
2018Up3-6	0	0	 chi2PRS: 0.89644	 chi2MRS: 1.02536
2018Down3-5	0	0	 chi2PRS: 0.898922	 chi2MRS: 0.976897
2018Down3-4	0	0	 chi2PRS: 0.795269	 chi2MRS: 0.848278
2018Up3-4	0	0	 chi2PRS: 0.915418	 chi2MRS: 0.999194
2018Down4-0	0	0	 chi2PRS: 0.760101	 chi2MRS: 0.70535
2018Down2-3	0	0	 chi2PRS: 1.17746	 chi2MRS: 1.80883
2018Up3-0	0	0	 chi2PRS: 1.58763	 chi2MRS: 2.0004
2018Down2-0	0	0	 chi2PRS: 1.96625	 chi2MRS: 2.06443
2018Up2-3	0	0	 chi2PRS: 1.23935	 chi2MRS: 2.13148
2018Down4-1	0	0	 chi2PRS: 0.645083	 chi2MRS: 0.783837
2018Up4-1	0	0	 chi2PRS: 0.829752	 chi2MRS: 1.02828
2018Up4-0	0	0	 chi2PRS: 0.772987	 chi2MRS: 0.7055
2018Down3-0	0	0	 chi2PRS: 1.64825	 chi2MRS: 1.72104
2018Down3-1	0	0	 chi2PRS: 0.83214	 chi2MRS: 0.914291
2018Up4-2	0	0	 chi2PRS: 0.879154	 chi2MRS: 0.897008
2018Down4-2	0	0	 chi2PRS: 1.08297	 chi2MRS: 1.02683
2018Up2-1	0	0	 chi2PRS: 2.09722	 chi2MRS: 1.88862
2018Up3-1	0	0	 chi2PRS: 0.784064	 chi2MRS: 1.12493
2018Up3-3	0	0	 chi2PRS: 2.25135	 chi2MRS: 2.56077
2018Up4-3	0	0	 chi2PRS: 1.19374	 chi2MRS: 1.47819
2018Down2-1	0	0	 chi2PRS: 2.74018	 chi2MRS: 2.0082
2018Down4-3	0	0	 chi2PRS: 1.62012	 chi2MRS: 1.55267
2018Up4-4	0	0	 chi2PRS: 1.0137	 chi2MRS: 1.12192
2018Down4-4	0	0	 chi2PRS: 1.34644	 chi2MRS: 1.24902
2018Down3-3	0	0	 chi2PRS: 2.25991	 chi2MRS: 2.93933
2018Up2-0	0	0	 chi2PRS: 1.80967	 chi2MRS: 1.75777
2018Down3-2	0	0	 chi2PRS: 2.16865	 chi2MRS: 2.40235
2018Up2-2	0	0	 chi2PRS: 5.18857	 chi2MRS: 4.62974
2018Up3-2	0	0	 chi2PRS: 1.95181	 chi2MRS: 2.1755
2018Up4-5	0	0	 chi2PRS: 0.611912	 chi2MRS: 0.536859
2018Down4-5	0	0	 chi2PRS: 0.74462	 chi2MRS: 0.928508
2018Down2-2	0	0	 chi2PRS: 4.17767	 chi2MRS: 4.93752
2018Up4-6	0	0	 chi2PRS: 0.853799	 chi2MRS: 0.730138
2018Down4-6	0	0	 chi2PRS: 0.653222	 chi2MRS: 0.592458
2018Up5-0	0	0	 chi2PRS: 0.741764	 chi2MRS: 0.885966
2018Down5-0	0	0	 chi2PRS: 0.719896	 chi2MRS: 0.476236
2018Up5-1	0	0	 chi2PRS: 0.768086	 chi2MRS: 0.756647
2018Down5-1	0	0	 chi2PRS: 0.85305	 chi2MRS: 0.733215
2018Up5-2	0	0	 chi2PRS: 0.65955	 chi2MRS: 0.744105
2018Down5-2	0	0	 chi2PRS: 0.766412	 chi2MRS: 0.647345
2018Down5-3	0	0	 chi2PRS: 0.66648	 chi2MRS: 0.762283
2018Up5-3	0	0	 chi2PRS: 0.713937	 chi2MRS: 0.705242
2018Up5-4	0	0	 chi2PRS: 0.942539	 chi2MRS: 0.953554
2018Down5-4	0	0	 chi2PRS: 0.734604	 chi2MRS: 0.648901
2018Down5-5	0	0	 chi2PRS: 0.954139	 chi2MRS: 0.890615
2018Up5-5	0	0	 chi2PRS: 0.638228	 chi2MRS: 0.694333
2018Down5-6	0	0	 chi2PRS: 0.645188	 chi2MRS: 0.843688
2018Up5-6	0	0	 chi2PRS: 0.674748	 chi2MRS: 0.60601
2018Down6-0	0	0	 chi2PRS: 0.459872	 chi2MRS: 0.603988
2018Up6-0	0	0	 chi2PRS: 0.477555	 chi2MRS: 0.651967
2018Up6-1	0	0	 chi2PRS: 1.09118	 chi2MRS: 0.950722
2018Down6-1	0	0	 chi2PRS: 0.839603	 chi2MRS: 1.00319
2018Up6-2	0	0	 chi2PRS: 0.696601	 chi2MRS: 1.21695
2018Down6-2	0	0	 chi2PRS: 0.645548	 chi2MRS: 0.952538
2018Down6-3	0	0	 chi2PRS: 0.852734	 chi2MRS: 0.798666
2018Up6-3	0	0	 chi2PRS: 0.788612	 chi2MRS: 0.835167
2018Down6-4	0	0	 chi2PRS: 0.743867	 chi2MRS: 0.847991
2018Up6-4	0	0	 chi2PRS: 0.730553	 chi2MRS: 0.93875
2018Down6-5	0	0	 chi2PRS: 0.674608	 chi2MRS: 0.579765
2018Up6-5	0	0	 chi2PRS: 0.690203	 chi2MRS: 0.608655
2018Up6-6	0	0	 chi2PRS: 0.981371	 chi2MRS: 0.890124
2018Down6-6	0	0	 chi2PRS: 1.18238	 chi2MRS: 1.201
