MagDown PARAMs START ====>
am, 3.8, -10, 50, 0
bm, -7.4, -50, 0, 0
cm, 0.3, -10, 20, 1
coeffsig, 0.4, 0, 1, 0
dm0, 139.4, 130, 150, 0
mean, 145.5, 138, 159, 0
sigma1, 0.6, 0, 10, 0
sigma2, 0.8, 0, 10, 0
sigma3, 1.1, 0, 10, 0
MagDown PARAMs END <====
MagUp PARAMs START ====>
am, 4, -10, 10, 0
bm, -8, -20, 0, 0
cm, 0.2, -10, 200, 0
coeffsig, 0.8, 0, 1, 0
dm0, 139.4, 130, 150, 0
mean, 145.5, 138, 159, 0
sigma1, 0.7, 0, 10, 0
sigma2, 1, 0, 10, 0
sigma3, 3, 0, 10, 0
MagUp PARAMs END <====
