MagDown PARAMs START ====>
am, 6.7, -10, 10, 0
bm, -14, -20, 0, 0
cm, 8.6, -10, 200, 1
coeffsig, 0.4, 0, 1, 0
dm0, 139.4, 130, 150, 0
mean, 145.5, 138, 159, 0
sigma1, 0.2, 0, 10, 1
sigma2, 2, 0, 10, 1
sigma3, 0.8, 0, 10, 1
MagDown PARAMs END <====
MagUp PARAMs START ====>
am, 6.7, -10, 10, 0
bm, -14, -20, 0, 0
cm, 8.6, -10, 200, 1
coeffsig, 0.4, 0, 1, 0
dm0, 139.4, 130, 150, 0
mean, 145.5, 138, 159, 0
sigma1, 0.2, 0, 10, 1
sigma2, 2, 0, 10, 1
sigma3, 0.8, 0, 10, 1
MagUp PARAMs END <====
