MagDown PARAMs START ====>
am, 2, -10, 10, 0
bm, -3.5, -20, 20, 0
cm, 5, -10, 200, 0
coeffsig, 0.1, 0, 1, 0
dm0, 139.4, 130, 150, 1
mean, 145.5, 138, 159, 0
sigma1, 0.5, 0, 10, 0
sigma2, 0.5, 0, 10, 0
sigma3, 1.1, 0, 10, 0
MagDown PARAMs END <====
MagUp PARAMs START ====>
am, 1.5, -10, 10, 0
bm, -1.05, -20, 20, 0
cm, 3.16, -10, 200, 0
coeffsig, 0.1, 0, 1, 0
dm0, 139.2, 130, 150, 1
mean, 145.5, 138, 159, 0
sigma1, 0.61, 0, 10, 0
sigma2, 0.75, 0, 10, 0
sigma3, 2.92, 0, 10, 1
MagUp PARAMs END <====
