MagDown PARAMs START ====>
am, -1.34, -10, 10, 1
bm, -0.016, -20, 0, 1
cm, 6.4, -10, 200, 1
coeffsig, 0.1, 0, 1, 0
dm0, 139.4, 130, 150, 0
mean, 145.5, 138, 159, 0
sigma1, 0.59, 0, 10, 1
sigma2, 0.66, 0, 10, 1
sigma3, 0.95, 0, 10, 1
MagDown PARAMs END <====
MagUp PARAMs START ====>
am, -1.34, -10, 10, 1
bm, -0.016, -20, 0, 1
cm, 6.4, -10, 200, 1
coeffsig, 0.1, 0, 1, 0
dm0, 139.4, 130, 150, 0
mean, 145.5, 138, 159, 0
sigma1, 0.59, 0, 10, 1
sigma2, 0.66, 0, 10, 1
sigma3, 0.95, 0, 10, 1
MagUp PARAMs END <====
