2016Up0-1	0	0	 chi2PRS: 1.77552	 chi2MRS: 1.40129
2016Down0-1	0	0	 chi2PRS: 1.93104	 chi2MRS: 1.7868
2016Up0-0	0	0	 chi2PRS: 95.0413	 chi2MRS: 17.3394
2016Down0-0	0	0	 chi2PRS: 78.1763	 chi2MRS: 46.6614
2016Up0-2	0	0	 chi2PRS: 1.54939	 chi2MRS: 1.79068
2016Down0-2	0	0	 chi2PRS: 1.57483	 chi2MRS: 1.85084
2016Down0-3	0	0	 chi2PRS: 1.32771	 chi2MRS: 1.3278
2016Up0-3	0	0	 chi2PRS: 1.49259	 chi2MRS: 1.90889
2016Up0-4	0	0	 chi2PRS: 0.780039	 chi2MRS: 1.33144
2016Down0-4	0	0	 chi2PRS: 0.721931	 chi2MRS: 1.28529
2016Up0-5	0	0	 chi2PRS: 0.873301	 chi2MRS: 0.826662
2016Down0-5	0	0	 chi2PRS: 1.13636	 chi2MRS: 1.67923
2016Up0-6	0	0	 chi2PRS: 1.19356	 chi2MRS: 0.89889
2016Down0-6	0	0	 chi2PRS: 0.851353	 chi2MRS: 1.22007
2016Up1-0	0	0	 chi2PRS: 1.62593	 chi2MRS: 6.63636
2016Down1-0	0	0	 chi2PRS: 15.4454	 chi2MRS: 4.21172
2016Up1-1	0	0	 chi2PRS: 942.23	 chi2MRS: 902.481
2016Down1-1	0	0	 chi2PRS: 141723	 chi2MRS: 6108.67
2016Up1-2	0	0	 chi2PRS: 1.43855	 chi2MRS: 2.51867
2016Down1-2	0	0	 chi2PRS: 6.86762	 chi2MRS: 1.94108
2016Up1-3	0	0	 chi2PRS: 1.70786	 chi2MRS: 1.49261
2016Down1-3	0	0	 chi2PRS: 1.14054	 chi2MRS: 1.99094
2016Up1-4	0	0	 chi2PRS: 1.11908	 chi2MRS: 0.973896
2016Down1-4	0	0	 chi2PRS: 1.16572	 chi2MRS: 0.984182
2016Up1-5	0	0	 chi2PRS: 1.03143	 chi2MRS: 1.2532
2016Down1-5	0	0	 chi2PRS: 1.08673	 chi2MRS: 1.01876
2016Up1-6	0	0	 chi2PRS: 1.00086	 chi2MRS: 1.38767
2016Down1-6	0	0	 chi2PRS: 1.19276	 chi2MRS: 1.48201
2016Up2-0	0	0	 chi2PRS: 1.34367	 chi2MRS: 1.20074
2016Down2-0	0	0	 chi2PRS: 1.33299	 chi2MRS: 1.01939
2016Up2-1	0	0	 chi2PRS: 2.93986	 chi2MRS: 1.76849
2016Down2-1	0	0	 chi2PRS: 2.80741	 chi2MRS: 3.11949
2016Up2-2	0	0	 chi2PRS: 799.406	 chi2MRS: 579.472
2016Down2-2	0	0	 chi2PRS: 1986.4	 chi2MRS: 167.408
2016Up2-3	0	0	 chi2PRS: 1.09311	 chi2MRS: 0.873403
2016Down2-3	0	0	 chi2PRS: 2.18454	 chi2MRS: 1.62229
2016Up2-4	0	0	 chi2PRS: 1.39656	 chi2MRS: 1.43107
2016Down2-4	0	0	 chi2PRS: 1.55261	 chi2MRS: 1.06351
2016Up2-5	0	0	 chi2PRS: 2.01455	 chi2MRS: 0.881138
2016Down2-5	0	0	 chi2PRS: 1.3075	 chi2MRS: 1.01801
2016Up2-6	0	0	 chi2PRS: 1.23357	 chi2MRS: 1.57313
2016Down2-6	0	0	 chi2PRS: 1.41967	 chi2MRS: 1.23508
2016Up3-0	0	0	 chi2PRS: 1.09814	 chi2MRS: 1.11466
2016Down3-0	0	0	 chi2PRS: 1.05043	 chi2MRS: 1.30891
2016Up3-1	0	0	 chi2PRS: 1.00232	 chi2MRS: 1.19595
2016Down3-1	0	0	 chi2PRS: 1.11236	 chi2MRS: 1.1105
2016Up3-2	0	0	 chi2PRS: 2.02621	 chi2MRS: 2.43203
2016Down3-2	0	0	 chi2PRS: 1.18175	 chi2MRS: 1.74687
2016Up3-3	0	0	 chi2PRS: 8.6644	 chi2MRS: 4.21785
2016Down3-3	0	0	 chi2PRS: 2.3978	 chi2MRS: 254.169
2016Up3-4	0	0	 chi2PRS: 0.910735	 chi2MRS: 1.40288
2016Down3-4	0	0	 chi2PRS: 0.802782	 chi2MRS: 1.71774
2016Up3-5	0	0	 chi2PRS: 1.09673	 chi2MRS: 0.939395
2016Down3-5	0	0	 chi2PRS: 0.990128	 chi2MRS: 1.12941
2016Up3-6	0	0	 chi2PRS: 0.911677	 chi2MRS: 1.20825
2016Down3-6	0	0	 chi2PRS: 1.56457	 chi2MRS: 1.24519
2016Up4-0	0	0	 chi2PRS: 2.15497	 chi2MRS: 0.85294
2016Down4-0	0	0	 chi2PRS: 0.811413	 chi2MRS: 1.24183
2016Up4-1	0	0	 chi2PRS: 1.15294	 chi2MRS: 0.819932
2016Down4-1	0	0	 chi2PRS: 1.12448	 chi2MRS: 1.25511
2016Up4-2	0	0	 chi2PRS: 1.25938	 chi2MRS: 0.893733
2016Down4-2	0	0	 chi2PRS: 1.14864	 chi2MRS: 1.29344
2016Up4-3	0	0	 chi2PRS: 1.10975	 chi2MRS: 2.44751
2016Down4-3	0	0	 chi2PRS: 5.99383	 chi2MRS: 1.28727
2016Up4-4	0	0	 chi2PRS: 0.990989	 chi2MRS: 1.30778
2016Down4-4	0	0	 chi2PRS: 1.42353	 chi2MRS: 1.50427
2016Up4-5	0	0	 chi2PRS: 4.21836	 chi2MRS: 0.887248
2016Down4-5	0	0	 chi2PRS: 4.42304	 chi2MRS: 1.29672
2016Up4-6	0	0	 chi2PRS: 1.15565	 chi2MRS: 1.23197
2016Down4-6	0	0	 chi2PRS: 0.786808	 chi2MRS: 1.47446
2016Up5-0	0	0	 chi2PRS: 0.72997	 chi2MRS: 1.00394
2016Down5-0	0	0	 chi2PRS: 0.616538	 chi2MRS: 1.16611
2016Up5-1	0	0	 chi2PRS: 0.803104	 chi2MRS: 0.53348
2016Down5-1	0	0	 chi2PRS: 0.87697	 chi2MRS: 0.626228
2016Up5-2	0	0	 chi2PRS: 1.0971	 chi2MRS: 0.982924
2016Down5-2	0	0	 chi2PRS: 1.08042	 chi2MRS: 1.07945
2016Up5-3	0	0	 chi2PRS: 0.500868	 chi2MRS: 1.78704
2016Down5-3	0	0	 chi2PRS: 0.689873	 chi2MRS: 1.0689
2016Up5-4	0	0	 chi2PRS: 0.942189	 chi2MRS: 1.32722
2016Down5-4	0	0	 chi2PRS: 1.39619	 chi2MRS: 0.744062
2016Up5-5	0	0	 chi2PRS: 0.757381	 chi2MRS: 0.959525
2016Down5-5	0	0	 chi2PRS: 1.06745	 chi2MRS: 1.50559
2016Up5-6	0	0	 chi2PRS: 0.834267	 chi2MRS: 0.756555
2016Down5-6	0	0	 chi2PRS: 0.834328	 chi2MRS: 3.49355
2016Up6-0	0	0	 chi2PRS: 0.696309	 chi2MRS: 1.30999
2016Down6-0	0	0	 chi2PRS: 0.844948	 chi2MRS: 1.2982
2016Up6-1	0	0	 chi2PRS: 0.806851	 chi2MRS: 0.830121
2016Down6-1	0	0	 chi2PRS: 1.21303	 chi2MRS: 0.829361
2016Down6-2	0	0	 chi2PRS: 0.992134	 chi2MRS: 0.906682
2016Up6-3	0	0	 chi2PRS: 1.24238	 chi2MRS: 0.868528
2016Down6-3	0	0	 chi2PRS: 0.68953	 chi2MRS: 1.25562
2016Up6-4	0	0	 chi2PRS: 0.914744	 chi2MRS: 0.89438
2016Down6-4	0	0	 chi2PRS: 0.638538	 chi2MRS: 0.823271
2016Up6-2	0	0	 chi2PRS: 8436.86	 chi2MRS: 752.434
2016Up6-5	0	0	 chi2PRS: 1.08956	 chi2MRS: 0.850237
2016Down6-5	0	0	 chi2PRS: 0.984105	 chi2MRS: 0.903752
2016Up6-6	0	0	 chi2PRS: 1.4392	 chi2MRS: 0.911131
2016Down6-6	0	0	 chi2PRS: 1.53326	 chi2MRS: 1.0784
2016Up0-0	0	0	 chi2PRS: 95.0413	 chi2MRS: 17.3394
2016Down0-0	0	0	 chi2PRS: 78.1763	 chi2MRS: 46.6614
2016Up0-1	0	0	 chi2PRS: 1.77552	 chi2MRS: 1.40129
2016Down0-1	0	0	 chi2PRS: 1.93104	 chi2MRS: 1.7868
2016Up0-2	0	0	 chi2PRS: 1.54939	 chi2MRS: 1.79068
2016Down0-2	0	0	 chi2PRS: 1.57483	 chi2MRS: 1.85084
2016Down0-3	0	0	 chi2PRS: 1.32771	 chi2MRS: 1.3278
2016Up0-4	0	0	 chi2PRS: 0.780039	 chi2MRS: 1.33144
2016Up0-3	0	0	 chi2PRS: 1.49259	 chi2MRS: 1.90889
2016Down0-4	0	0	 chi2PRS: 0.721931	 chi2MRS: 1.28529
2016Up0-5	0	0	 chi2PRS: 0.873301	 chi2MRS: 0.826662
2016Up0-6	0	0	 chi2PRS: 1.19356	 chi2MRS: 0.89889
2016Down0-5	0	0	 chi2PRS: 1.13636	 chi2MRS: 1.67923
2016Down0-6	0	0	 chi2PRS: 0.851353	 chi2MRS: 1.22007
2016Up1-0	0	0	 chi2PRS: 1.62593	 chi2MRS: 6.63636
2016Down1-0	0	0	 chi2PRS: 15.4454	 chi2MRS: 4.21172
2016Up1-1	0	0	 chi2PRS: 942.23	 chi2MRS: 902.481
2016Down1-1	0	0	 chi2PRS: 141723	 chi2MRS: 6108.67
2016Up1-2	0	0	 chi2PRS: 1.43855	 chi2MRS: 2.51867
2016Down1-2	0	0	 chi2PRS: 6.86762	 chi2MRS: 1.94108
2016Up1-3	0	0	 chi2PRS: 1.70786	 chi2MRS: 1.49261
2016Down1-3	0	0	 chi2PRS: 1.14054	 chi2MRS: 1.99094
2016Up1-4	0	0	 chi2PRS: 1.11908	 chi2MRS: 0.973896
2016Down1-4	0	0	 chi2PRS: 1.16572	 chi2MRS: 0.984182
2016Up1-5	0	0	 chi2PRS: 1.03143	 chi2MRS: 1.2532
2016Down1-5	0	0	 chi2PRS: 1.08673	 chi2MRS: 1.01876
2016Up1-6	0	0	 chi2PRS: 1.00086	 chi2MRS: 1.38767
2016Down1-6	0	0	 chi2PRS: 1.19276	 chi2MRS: 1.48201
2016Up2-0	0	0	 chi2PRS: 1.34367	 chi2MRS: 1.20074
2016Down2-0	0	0	 chi2PRS: 1.33299	 chi2MRS: 1.01939
2016Up2-1	0	0	 chi2PRS: 2.93986	 chi2MRS: 1.76849
2016Down2-1	0	0	 chi2PRS: 2.80741	 chi2MRS: 3.11949
2016Up2-2	0	0	 chi2PRS: 799.406	 chi2MRS: 579.472
2016Down2-2	0	0	 chi2PRS: 1986.4	 chi2MRS: 167.408
2016Up2-3	0	0	 chi2PRS: 1.09311	 chi2MRS: 0.873403
2016Down2-3	0	0	 chi2PRS: 2.18454	 chi2MRS: 1.62229
2016Up2-4	0	0	 chi2PRS: 1.39656	 chi2MRS: 1.43107
2016Down2-4	0	0	 chi2PRS: 1.55261	 chi2MRS: 1.06351
2016Up2-5	0	0	 chi2PRS: 2.01455	 chi2MRS: 0.881138
2016Down2-5	0	0	 chi2PRS: 1.3075	 chi2MRS: 1.01801
2016Up2-6	0	0	 chi2PRS: 1.23357	 chi2MRS: 1.57313
2016Down2-6	0	0	 chi2PRS: 1.41967	 chi2MRS: 1.23508
2016Up3-0	0	0	 chi2PRS: 1.09814	 chi2MRS: 1.11466
2016Down3-0	0	0	 chi2PRS: 1.05043	 chi2MRS: 1.30891
2016Up3-1	0	0	 chi2PRS: 1.00232	 chi2MRS: 1.19595
2016Down3-1	0	0	 chi2PRS: 1.11236	 chi2MRS: 1.1105
2016Up3-2	0	0	 chi2PRS: 2.02621	 chi2MRS: 2.43203
2016Down3-2	0	0	 chi2PRS: 1.18175	 chi2MRS: 1.74687
2016Up3-3	0	0	 chi2PRS: 8.6644	 chi2MRS: 4.21785
2016Down3-3	0	0	 chi2PRS: 2.3978	 chi2MRS: 254.169
2016Up3-4	0	0	 chi2PRS: 0.910735	 chi2MRS: 1.40288
2016Down3-4	0	0	 chi2PRS: 0.802782	 chi2MRS: 1.71774
2016Up3-5	0	0	 chi2PRS: 1.09673	 chi2MRS: 0.939395
2016Down3-5	0	0	 chi2PRS: 0.990128	 chi2MRS: 1.12941
2016Up3-6	0	0	 chi2PRS: 0.911677	 chi2MRS: 1.20825
2016Down3-6	0	0	 chi2PRS: 1.56457	 chi2MRS: 1.24519
2016Up4-0	0	0	 chi2PRS: 2.15497	 chi2MRS: 0.85294
2016Down4-0	0	0	 chi2PRS: 0.811413	 chi2MRS: 1.24183
2016Up4-1	0	0	 chi2PRS: 1.15294	 chi2MRS: 0.819932
2016Down4-1	0	0	 chi2PRS: 1.12448	 chi2MRS: 1.25511
2016Up4-2	0	0	 chi2PRS: 1.25938	 chi2MRS: 0.893733
2016Down4-2	0	0	 chi2PRS: 1.14864	 chi2MRS: 1.29344
2016Up4-3	0	0	 chi2PRS: 1.10975	 chi2MRS: 2.44751
2016Down4-3	0	0	 chi2PRS: 5.99383	 chi2MRS: 1.28727
2016Up4-4	0	0	 chi2PRS: 0.990989	 chi2MRS: 1.30778
2016Down4-4	0	0	 chi2PRS: 1.42353	 chi2MRS: 1.50427
2016Up4-5	0	0	 chi2PRS: 4.21836	 chi2MRS: 0.887248
2016Down4-5	0	0	 chi2PRS: 4.42304	 chi2MRS: 1.29672
2016Up4-6	0	0	 chi2PRS: 1.15565	 chi2MRS: 1.23197
2016Down4-6	0	0	 chi2PRS: 0.786808	 chi2MRS: 1.47446
2016Up5-0	0	0	 chi2PRS: 0.72997	 chi2MRS: 1.00394
2016Down5-0	0	0	 chi2PRS: 0.616538	 chi2MRS: 1.16611
2016Up5-1	0	0	 chi2PRS: 0.803104	 chi2MRS: 0.53348
2016Down5-1	0	0	 chi2PRS: 0.87697	 chi2MRS: 0.626228
2016Up5-2	0	0	 chi2PRS: 1.0971	 chi2MRS: 0.982924
2016Down5-2	0	0	 chi2PRS: 1.08042	 chi2MRS: 1.07945
2016Up5-3	0	0	 chi2PRS: 0.500868	 chi2MRS: 1.78704
2016Down5-3	0	0	 chi2PRS: 0.689873	 chi2MRS: 1.0689
2016Up5-4	0	0	 chi2PRS: 0.942189	 chi2MRS: 1.32722
2016Down5-4	0	0	 chi2PRS: 1.39619	 chi2MRS: 0.744062
2016Up5-5	0	0	 chi2PRS: 0.757381	 chi2MRS: 0.959525
2016Down5-5	0	0	 chi2PRS: 1.06745	 chi2MRS: 1.50559
2016Up5-6	0	0	 chi2PRS: 0.834267	 chi2MRS: 0.756555
2016Down5-6	0	0	 chi2PRS: 0.834328	 chi2MRS: 3.49355
2016Up6-0	0	0	 chi2PRS: 0.696309	 chi2MRS: 1.30999
2016Down6-0	0	0	 chi2PRS: 0.844948	 chi2MRS: 1.2982
2016Up6-1	0	0	 chi2PRS: 0.806851	 chi2MRS: 0.830121
2016Down6-1	0	0	 chi2PRS: 1.21303	 chi2MRS: 0.829361
2016Down6-2	0	0	 chi2PRS: 0.992134	 chi2MRS: 0.906682
2016Up6-3	0	0	 chi2PRS: 1.24238	 chi2MRS: 0.868528
2016Down6-3	0	0	 chi2PRS: 0.68953	 chi2MRS: 1.25562
2016Up6-4	0	0	 chi2PRS: 0.914744	 chi2MRS: 0.89438
2016Down6-4	0	0	 chi2PRS: 0.638538	 chi2MRS: 0.823271
2016Up6-2	0	0	 chi2PRS: 8436.86	 chi2MRS: 752.434
2016Up6-5	0	0	 chi2PRS: 1.08956	 chi2MRS: 0.850237
2016Down6-5	0	0	 chi2PRS: 0.984105	 chi2MRS: 0.903752
2016Up6-6	0	0	 chi2PRS: 1.4392	 chi2MRS: 0.911131
2016Down6-6	0	0	 chi2PRS: 1.53326	 chi2MRS: 1.0784
