16Up   ; 0.08499999999999999 ; 0.06470896383036898 ; 0.0
16Down ; 0.055499999999999994 ; 0.06010407640085655 ; 0.0
17Up   ; 0.018000000000000002 ; 0.04738143096192854 ; 0.0
17Down ; 0.006999999999999999 ; 0.04348850422812907 ; 0.0
18Up   ; 0.0685 ; 0.044553338819890924 ; 0.0
18Down ; -0.0185 ; 0.04101219330881976 ; 0.0
