MagDown PARAMs START ====>
mean, 141, 139, 148, 0
sigma, 1.5, 0.5, 9999, 0
sigma2, 6.9, 0, 9, 0
acc_p, 5.1, -999, 5.5, 0
acc_s, 0.7, 0.1, 1.5, 0
offset, 138, 130, 150, 1
dm0, 139, 130, 145, 0
am, 5, -2, 10, 0
bm, -9, -20, 10, 0
cm, 2.5, -10, 10, 0
poly_a, 0.1, -1, 1, 0
poly_b, -0.2, -1, 1, 0
poly_c, -0.2, -1, 1, 0
MagDown PARAMs END <====
MagUp PARAMs START ====>
mean, 141, 139, 148, 0
sigma, 1.5, 0.5, 9999, 0
sigma2, 6.0, 0, 9, 0
acc_p, 5.1, -999, 5.5, 0
acc_s, 1.0, 0.1, 1.5, 0
offset, 138, 130, 150, 1
dm0, 139, 130, 145, 0
am, 11, -2, 10, 0
bm, -22, -20, 10, 0
cm, 0.5, -10, 10, 0
poly_a, 0.1, -1, 1, 0
poly_b, -0.2, -1, 1, 0
poly_c, -0.2, -1, 1, 0
MagUp PARAMs END <====
