2016Down0	0	0	chi2PRS: 0.622985	 chi2MRS: 2.53945
2016Down1	0	0	chi2PRS: 0.402022	 chi2MRS: 2.21749
2016Down2	0	0	chi2PRS: 0.714463	 chi2MRS: 2.57544
2016Down3	0	0	chi2PRS: 0.382485	 chi2MRS: 1.93965
2016Down5	0	0	chi2PRS: 0.461666	 chi2MRS: 3.1208
2016Down4	0	0	chi2PRS: 0.524219	 chi2MRS: 2.26267
2016Up0	0	0	chi2PRS: 0.778539	 chi2MRS: 3.16208
2016Up1	0	0	chi2PRS: 0.399073	 chi2MRS: 2.22103
2016Down6	0	0	chi2PRS: 0.612514	 chi2MRS: 1.64583
2016Up3	0	0	chi2PRS: 0.434057	 chi2MRS: 1.61251
2016Up2	0	0	chi2PRS: 0.59578	 chi2MRS: 2.35925
2016Up5	0	0	chi2PRS: 0.414159	 chi2MRS: 2.12196
2016Up4	0	0	chi2PRS: 0.439627	 chi2MRS: 1.94721
2016Up6	0	0	chi2PRS: 0.759985	 chi2MRS: 2.49901
