MagDown PARAMs START ====>
am, 1, -10, 10, 0
bm, -3.5, -20, 0, 0
cm, 5, -10, 200, 0
coeffsig, 0.1, 0, 1, 0
dm0, 139.6, 130, 150, 1
mean, 145.5, 138, 159, 0
sigma1, 0.5, 0, 10, 0
sigma2, 0.5, 0, 10, 0
sigma3, 1.1, 0, 10, 0
MagDown PARAMs END <====
MagUp PARAMs START ====>
am, 2.5, -10, 10, 0
bm, -9.6, -20, 0, 0
cm, 11, -10, 200, 1
coeffsig, 0.9, 0, 1, 0
dm0, 140.0, 130, 150, 1
mean, 145.5, 138, 159, 1
sigma1, 0.3, 0, 10, 0
sigma2, 0.3, 0, 10, 0
sigma3, 1.0, 0, 10, 0
MagUp PARAMs END <====
