MagDown PARAMs START ====>
am, 3, -10, 10, 1
bm, -0.75, -20, 0, 1
cm, 1.16, -10, 200, 1
coeffsig, 0.1, 0, 1, 0
dm0, 139.4, 130, 150, 0
mean, 145.5, 138, 159, 0
sigma1, 0.8, 0, 10, 0
sigma2, 0.8, 0, 10, 0
sigma3, 0.8, 0, 10, 0
MagDown PARAMs END <====
MagUp PARAMs START ====>
am, 3, -10, 10, 1
bm, -0.75, -20, 0, 1
cm, 1.16, -10, 200, 1
coeffsig, 0.1, 0, 1, 0
dm0, 139.4, 130, 150, 0
mean, 145.5, 138, 159, 0
sigma1, 0.8, 0, 10, 0
sigma2, 0.8, 0, 10, 0
sigma3, 0.8, 0, 10, 0
MagUp PARAMs END <====
