MagDown PARAMs START ====>
am, -4.5, -10, 10, 1
bm, -3.2, -20, 0, 1
cm, 7.4, -10, 200, 1
coeffsig, 0.1, 0, 1, 0
dm0, 139.4, 130, 150, 0
mean, 145.5, 138, 159, 0
sigma1, 0.5, 0, 10, 1
sigma2, 0.5, 0, 10, 1
sigma3, 0.98, 0, 10, 1
MagDown PARAMs END <====
MagUp PARAMs START ====>
am, -4, -10, 10, 0
bm, -3, -20, 0, 0
cm, 7, -10, 200, 0
coeffsig, 0.7, 0, 1, 0
dm0, 139.4, 130, 150, 0
mean, 145.5, 138, 159, 0
sigma1, 0.5, 0, 10, 0
sigma2, 0.5, 0, 10, 0
sigma3, 1.1, 0, 10, 0
MagUp PARAMs END <====
