MagDown PARAMs START ====>
am, -4.7, -10, 10, 0
bm, -2.1, -20, 0, 0
cm, 11, -10, 200, 0
coeffsig, 0.7, 0, 1, 0
dm0, 139.4, 130, 150, 0
mean, 145.5, 138, 159, 0
sigma1, 0.4, 0, 10, 0
sigma2, 0.4, 0, 10, 0
sigma3, 0.9, 0, 10, 0
MagDown PARAMs END <====
MagUp PARAMs START ====>
am, -4.7, -10, 10, 0
bm, -2.1, -20, 0, 0
cm, 11, -10, 200, 0
coeffsig, 0.7, 0, 1, 0
dm0, 139.4, 130, 150, 0
mean, 145.5, 138, 159, 0
sigma1, 0.4, 0, 10, 0
sigma2, 0.4, 0, 10, 0
sigma3, 0.9, 0, 10, 0
MagUp PARAMs END <====
