MagDown PARAMs START ====>
am, -9, -20, 10, 0
bm, -0.6, -20, 0, 0
cm, 15, -10, 200, 0
coeffsig, 0.7, 0, 1, 0
dm0, 139.4, 130, 150, 0
mean, 145.5, 138, 159, 0
sigma1, 0.4, 0, 10, 0
sigma2, 0.4, 0, 10, 0
sigma3, 0.8, 0, 10, 0
MagDown PARAMs END <====
MagUp PARAMs START ====>
am, -9, -20, 10, 0
bm, -0.6, -20, 0, 0
cm, 15, -10, 200, 0
coeffsig, 0.7, 0, 1, 0
dm0, 139.4, 130, 150, 0
mean, 145.5, 138, 159, 0
sigma1, 0.4, 0, 10, 0
sigma2, 0.4, 0, 10, 0
sigma3, 0.8, 0, 10, 0
MagUp PARAMs END <====
