\relax 
\providecommand\hyper@newdestlabel[2]{}
\providecommand\HyperFirstAtBeginDocument{\AtBeginDocument}
\HyperFirstAtBeginDocument{\ifx\hyper@anchor\@undefined
\global\let\oldcontentsline\contentsline
\gdef\contentsline#1#2#3#4{\oldcontentsline{#1}{#2}{#3}}
\global\let\oldnewlabel\newlabel
\gdef\newlabel#1#2{\newlabelxx{#1}#2}
\gdef\newlabelxx#1#2#3#4#5#6{\oldnewlabel{#1}{{#2}{#3}}}
\AtEndDocument{\ifx\hyper@anchor\@undefined
\let\contentsline\oldcontentsline
\let\newlabel\oldnewlabel
\fi}
\fi}
\global\let\hyper@last\relax 
\gdef\HyperFirstAtBeginDocument#1{#1}
\providecommand\HyField@AuxAddToFields[1]{}
\providecommand\HyField@AuxAddToCoFields[2]{}
\providecommand{\mciteSetMaxWidth}[3]{\relax}
\providecommand{\mciteSetMaxCount}[3]{\relax}
\bibstyle{LHCb}
\bibdata{main,standard,LHCb-PAPER,LHCb-CONF,LHCb-DP,LHCb-TDR}
\@writefile{lof}{\contentsline {figure}{\numberline {1}{\ignorespaces Partial sammple\relax }}{1}{figure.caption.1}}
\@writefile{lof}{\contentsline {figure}{\numberline {2}{\ignorespaces Partial sammple\relax }}{2}{figure.caption.2}}
\@writefile{lof}{\contentsline {figure}{\numberline {3}{\ignorespaces Partial sammple\relax }}{3}{figure.caption.3}}
\@writefile{lof}{\contentsline {figure}{\numberline {4}{\ignorespaces Partial sammple\relax }}{4}{figure.caption.4}}
\@writefile{lof}{\contentsline {figure}{\numberline {5}{\ignorespaces Partial sammple\relax }}{5}{figure.caption.5}}
\@writefile{lof}{\contentsline {figure}{\numberline {6}{\ignorespaces Partial sammple\relax }}{6}{figure.caption.6}}
\@writefile{lof}{\contentsline {figure}{\numberline {7}{\ignorespaces Partial sammple\relax }}{7}{figure.caption.7}}
\@writefile{lof}{\contentsline {figure}{\numberline {8}{\ignorespaces Partial sammple\relax }}{8}{figure.caption.8}}
\@writefile{lof}{\contentsline {figure}{\numberline {9}{\ignorespaces Partial sammple\relax }}{9}{figure.caption.9}}
