2018Up1-2	0	0	 chi2PRS: 0.588139	 chi2MRS: 2.55435
2018Up0-6	0	0	 chi2PRS: 0.74331	 chi2MRS: 2.01999
2018Up1-6	0	0	 chi2PRS: 0.527622	 chi2MRS: 2.37197
2018Up2-0	0	0	 chi2PRS: 0.51057	 chi2MRS: 1.78081
2018Up2-3	0	0	 chi2PRS: 0.614081	 chi2MRS: 2.35911
2018Up0-4	0	0	 chi2PRS: 0.695672	 chi2MRS: 0
2018Up1-5	0	0	 chi2PRS: 0.574131	 chi2MRS: 0
2018Up0-3	0	0	 chi2PRS: 0.56981	 chi2MRS: 0
2018Up1-3	0	0	 chi2PRS: 0.717079	 chi2MRS: 0
2018Up1-4	0	0	 chi2PRS: 0.705247	 chi2MRS: 0
2018Up0-2	0	0	 chi2PRS: 0.773919	 chi2MRS: 0
2018Up0-0	0	0	 chi2PRS: 0.783064	 chi2MRS: 0
2018Up0-5	0	0	 chi2PRS: 0.4131	 chi2MRS: 0
2018Up0-1	0	0	 chi2PRS: 0.615293	 chi2MRS: 0
2018Up1-1	0	0	 chi2PRS: 0.821304	 chi2MRS: 0
2018Up2-1	0	0	 chi2PRS: 0.854872	 chi2MRS: 0
2018Up1-0	0	0	 chi2PRS: 0.732846	 chi2MRS: 0
2018Up2-4	0	0	 chi2PRS: 0.503656	 chi2MRS: 0
2018Up2-5	0	0	 chi2PRS: 0.560205	 chi2MRS: 2.05738
2018Up2-2	0	0	 chi2PRS: 0.988315	 chi2MRS: 0
2018Up2-6	0	0	 chi2PRS: 0.623305	 chi2MRS: 0
2018Up3-1	0	0	 chi2PRS: 0.424331	 chi2MRS: 1.74106
2018Up3-0	0	0	 chi2PRS: 0.54383	 chi2MRS: 1.50358
2018Up3-2	0	0	 chi2PRS: 0.805221	 chi2MRS: 0
2018Up3-3	0	0	 chi2PRS: 0.623666	 chi2MRS: 1.76029
2018Up3-4	0	0	 chi2PRS: 0.40201	 chi2MRS: 0
2018Up3-5	0	0	 chi2PRS: 0.401492	 chi2MRS: 0
2018Up3-6	0	0	 chi2PRS: 0.471369	 chi2MRS: 0
2018Up4-0	0	0	 chi2PRS: 0.426404	 chi2MRS: 0
2018Up4-1	4	0	 chi2PRS: 0.454857	 chi2MRS: 2.07474
2018Up4-3	4	0	 chi2PRS: 0.526253	 chi2MRS: 1.53504
2018Up4-2	0	0	 chi2PRS: 0.663529	 chi2MRS: 0
2018Up4-4	4	0	 chi2PRS: 0.326292	 chi2MRS: 1.34927
2018Up4-6	4	0	 chi2PRS: 0.361334	 chi2MRS: 1.46368
2018Up4-5	0	0	 chi2PRS: 0.211395	 chi2MRS: 0
2018Up5-0	0	0	 chi2PRS: 0.393938	 chi2MRS: 1.67025
2018Up5-2	4	0	 chi2PRS: 0.505048	 chi2MRS: 1.80073
2018Up5-1	0	0	 chi2PRS: 0.467808	 chi2MRS: 1.61734
2018Up5-3	4	0	 chi2PRS: 0.5715	 chi2MRS: 1.56023
2018Up5-4	0	0	 chi2PRS: 0.276209	 chi2MRS: 1.03915
2018Up5-5	0	0	 chi2PRS: 0.17026	 chi2MRS: 0
2018Up5-6	0	0	 chi2PRS: 0.370012	 chi2MRS: 1.1879
2018Up6-0	0	0	 chi2PRS: 0.217049	 chi2MRS: 0
2018Up6-1	0	0	 chi2PRS: 0.389113	 chi2MRS: 1.275
2018Up6-2	0	0	 chi2PRS: 0.384762	 chi2MRS: 0
2018Up6-3	0	0	 chi2PRS: 0.43335	 chi2MRS: 0
2018Up6-6	0	0	 chi2PRS: 0.403193	 chi2MRS: 0
2018Up6-4	0	0	 chi2PRS: 0.282218	 chi2MRS: 0
2018Up6-5	0	0	 chi2PRS: 0.525252	 chi2MRS: 0
